(kicad_pcb (version 20221018) (generator pcbnew)

  (general
    (thickness 1.6)
  )

  (paper "A4")
  (layers
    (0 "F.Cu" signal)
    (31 "B.Cu" signal)
    (32 "B.Adhes" user "B.Adhesive")
    (33 "F.Adhes" user "F.Adhesive")
    (34 "B.Paste" user)
    (35 "F.Paste" user)
    (36 "B.SilkS" user "B.Silkscreen")
    (37 "F.SilkS" user "F.Silkscreen")
    (38 "B.Mask" user)
    (39 "F.Mask" user)
    (40 "Dwgs.User" user "User.Drawings")
    (41 "Cmts.User" user "User.Comments")
    (42 "Eco1.User" user "User.Eco1")
    (43 "Eco2.User" user "User.Eco2")
    (44 "Edge.Cuts" user)
    (45 "Margin" user)
    (46 "B.CrtYd" user "B.Courtyard")
    (47 "F.CrtYd" user "F.Courtyard")
    (48 "B.Fab" user)
    (49 "F.Fab" user)
  )

  (setup
    (pad_to_mask_clearance 0)
    (aux_axis_origin 130.5 124)
    (grid_origin 130.5 124)
    (pcbplotparams
      (layerselection 0x00010fc_ffffffff)
      (plot_on_all_layers_selection 0x0000000_00000000)
      (disableapertmacros false)
      (usegerberextensions false)
      (usegerberattributes true)
      (usegerberadvancedattributes true)
      (creategerberjobfile true)
      (dashed_line_dash_ratio 12.000000)
      (dashed_line_gap_ratio 3.000000)
      (svgprecision 4)
      (plotframeref false)
      (viasonmask false)
      (mode 1)
      (useauxorigin false)
      (hpglpennumber 1)
      (hpglpenspeed 20)
      (hpglpendiameter 15.000000)
      (dxfpolygonmode true)
      (dxfimperialunits true)
      (dxfusepcbnewfont true)
      (psnegative false)
      (psa4output false)
      (plotreference true)
      (plotvalue true)
      (plotinvisibletext false)
      (sketchpadsonfab false)
      (subtractmaskfromsilk false)
      (outputformat 1)
      (mirror false)
      (drillshape 1)
      (scaleselection 1)
      (outputdirectory "")
    )
  )

  (net 0 "")
  (net 1 "GND")
  (net 2 "+3V3")
  (net 3 "/SDI")
  (net 4 "/SDO")
  (net 5 "/SCK")
  (net 6 "/~{CS}")
  (net 7 "/RST")
  (net 8 "/AN")
  (net 9 "+5V")
  (net 10 "/SDA")
  (net 11 "/SCL")
  (net 12 "/RX")
  (net 13 "/TX")
  (net 14 "/INT")
  (net 15 "/PWM")

  (footprint "Connector_PinHeader_2.54mm:PinHeader_1x08_P2.54mm_Vertical" (layer "B.Cu")
    (tstamp 00000000-0000-0000-0000-000060f82b25)
    (at 136.77 97.41 180)
    (descr "Through hole straight pin header, 1x08, 2.54mm pitch, single row")
    (tags "Through hole pin header THT 1x08 2.54mm single row")
    (path "/00000000-0000-0000-0000-000060f81db5")
    (attr through_hole)
    (fp_text reference "J1" (at 0 2.33) (layer "B.SilkS")
        (effects (font (size 1 1) (thickness 0.15)) (justify mirror))
      (tstamp abfbc114-7531-4c58-a155-9ec9c93cbe28)
    )
    (fp_text value "Conn_01x08" (at 0 -20.11) (layer "B.Fab")
        (effects (font (size 1 1) (thickness 0.15)) (justify mirror))
      (tstamp c7cc2eba-8fa0-4762-8c94-e03518001e7c)
    )
    (fp_text user "${REFERENCE}" (at 0 -8.89 270) (layer "B.Fab")
        (effects (font (size 1 1) (thickness 0.15)) (justify mirror))
      (tstamp 81be95b0-568e-4daa-a659-57ace51a0655)
    )
    (fp_line (start -1.33 -19.11) (end 1.33 -19.11)
      (stroke (width 0.12) (type solid)) (layer "B.SilkS") (tstamp 6c7521bb-a78f-4cba-8d55-7ad71d3656e6))
    (fp_line (start -1.33 -1.27) (end -1.33 -19.11)
      (stroke (width 0.12) (type solid)) (layer "B.SilkS") (tstamp 0121bb15-74fa-4bab-a4b8-4d8edee41ca0))
    (fp_line (start -1.33 -1.27) (end 1.33 -1.27)
      (stroke (width 0.12) (type solid)) (layer "B.SilkS") (tstamp fbe017e5-9772-4f25-8ee4-78447cffc72d))
    (fp_line (start -1.33 0) (end -1.33 1.33)
      (stroke (width 0.12) (type solid)) (layer "B.SilkS") (tstamp 7d75c84d-4bca-438a-bb8c-5b597faa4bfd))
    (fp_line (start -1.33 1.33) (end 0 1.33)
      (stroke (width 0.12) (type solid)) (layer "B.SilkS") (tstamp c8de04bf-4021-4ebe-af0d-13244a8d0ce1))
    (fp_line (start 1.33 -1.27) (end 1.33 -19.11)
      (stroke (width 0.12) (type solid)) (layer "B.SilkS") (tstamp c95afd35-d684-4f81-86ab-f94f377bb302))
    (fp_line (start -1.8 -19.55) (end 1.8 -19.55)
      (stroke (width 0.05) (type solid)) (layer "B.CrtYd") (tstamp 44b09626-9d0f-40e3-8940-f688bf09888c))
    (fp_line (start -1.8 1.8) (end -1.8 -19.55)
      (stroke (width 0.05) (type solid)) (layer "B.CrtYd") (tstamp ab6e192f-1312-407c-8602-316e3d84fd87))
    (fp_line (start 1.8 -19.55) (end 1.8 1.8)
      (stroke (width 0.05) (type solid)) (layer "B.CrtYd") (tstamp 5097fb74-a63e-4040-b5cf-a0f426d44104))
    (fp_line (start 1.8 1.8) (end -1.8 1.8)
      (stroke (width 0.05) (type solid)) (layer "B.CrtYd") (tstamp 463ea55e-bfa2-4cc1-bea8-16a7364ff4a4))
    (fp_line (start -1.27 -19.05) (end -1.27 0.635)
      (stroke (width 0.1) (type solid)) (layer "B.Fab") (tstamp 5f5540b6-9dfe-4575-a595-d2c7ed1c3a36))
    (fp_line (start -1.27 0.635) (end -0.635 1.27)
      (stroke (width 0.1) (type solid)) (layer "B.Fab") (tstamp e3b18f9a-56b6-4b91-875e-e956fad76097))
    (fp_line (start -0.635 1.27) (end 1.27 1.27)
      (stroke (width 0.1) (type solid)) (layer "B.Fab") (tstamp 746bb07d-4c50-478f-9229-34762188c2aa))
    (fp_line (start 1.27 -19.05) (end -1.27 -19.05)
      (stroke (width 0.1) (type solid)) (layer "B.Fab") (tstamp 8db509f3-0399-4189-8106-34015163cda0))
    (fp_line (start 1.27 1.27) (end 1.27 -19.05)
      (stroke (width 0.1) (type solid)) (layer "B.Fab") (tstamp ac70650e-b241-4374-a01b-aadbb7a1c012))
    (pad "1" thru_hole rect (at 0 0 180) (size 1.7 1.7) (drill 1) (layers "*.Cu" "*.Mask")
      (net 8 "/AN") (tstamp d500a613-9720-4932-b023-42e1e0466713))
    (pad "2" thru_hole oval (at 0 -2.54 180) (size 1.7 1.7) (drill 1) (layers "*.Cu" "*.Mask")
      (net 7 "/RST") (tstamp eb60f3d6-888f-48cf-b586-af609ff082b6))
    (pad "3" thru_hole oval (at 0 -5.08 180) (size 1.7 1.7) (drill 1) (layers "*.Cu" "*.Mask")
      (net 6 "/~{CS}") (tstamp 8d574162-51e3-465d-92de-b6b3f9026d26))
    (pad "4" thru_hole oval (at 0 -7.62 180) (size 1.7 1.7) (drill 1) (layers "*.Cu" "*.Mask")
      (net 5 "/SCK") (tstamp 8ffa983e-3c32-4d35-ba58-e0bd55c03f13))
    (pad "5" thru_hole oval (at 0 -10.16 180) (size 1.7 1.7) (drill 1) (layers "*.Cu" "*.Mask")
      (net 4 "/SDO") (tstamp 3bec8b35-ab0d-4205-82bc-5d2177497077))
    (pad "6" thru_hole oval (at 0 -12.7 180) (size 1.7 1.7) (drill 1) (layers "*.Cu" "*.Mask")
      (net 3 "/SDI") (tstamp 93476dd2-07b1-4dc1-9e88-aa52957fcc97))
    (pad "7" thru_hole oval (at 0 -15.24 180) (size 1.7 1.7) (drill 1) (layers "*.Cu" "*.Mask")
      (net 2 "+3V3") (tstamp e7d52cbf-87a3-4bc3-b91d-22a228e4508a))
    (pad "8" thru_hole oval (at 0 -17.78 180) (size 1.7 1.7) (drill 1) (layers "*.Cu" "*.Mask")
      (net 1 "GND") (tstamp d6500084-4539-46bc-b3b9-5bbf516543fe))
    (model "${KISYS3DMOD}/Connector_PinHeader_2.54mm.3dshapes/PinHeader_1x08_P2.54mm_Vertical.wrl"
      (offset (xyz 0 0 0))
      (scale (xyz 1 1 1))
      (rotate (xyz 0 0 0))
    )
  )

  (footprint "Connector_PinHeader_2.54mm:PinHeader_1x08_P2.54mm_Vertical" (layer "B.Cu")
    (tstamp 00000000-0000-0000-0000-000060f82b41)
    (at 159.63 97.41 180)
    (descr "Through hole straight pin header, 1x08, 2.54mm pitch, single row")
    (tags "Through hole pin header THT 1x08 2.54mm single row")
    (path "/00000000-0000-0000-0000-000060f82b7c")
    (attr through_hole)
    (fp_text reference "J2" (at 0 2.33) (layer "B.SilkS")
        (effects (font (size 1 1) (thickness 0.15)) (justify mirror))
      (tstamp af83635e-ca94-4b4c-9fc2-ba1ed71b1f1c)
    )
    (fp_text value "Conn_01x08" (at 0 -20.11) (layer "B.Fab")
        (effects (font (size 1 1) (thickness 0.15)) (justify mirror))
      (tstamp 0b2ee66f-9d7a-4c3a-a5cc-2795f9549f1f)
    )
    (fp_text user "${REFERENCE}" (at 0 -8.89 270) (layer "B.Fab")
        (effects (font (size 1 1) (thickness 0.15)) (justify mirror))
      (tstamp 53a7d491-c955-4a16-b3e8-5792d3f7e205)
    )
    (fp_line (start -1.33 -19.11) (end 1.33 -19.11)
      (stroke (width 0.12) (type solid)) (layer "B.SilkS") (tstamp 7c649d6e-edcf-4fed-8fe1-b18a379751c6))
    (fp_line (start -1.33 -1.27) (end -1.33 -19.11)
      (stroke (width 0.12) (type solid)) (layer "B.SilkS") (tstamp 92a6d005-fde9-4104-8eea-3567d0da5034))
    (fp_line (start -1.33 -1.27) (end 1.33 -1.27)
      (stroke (width 0.12) (type solid)) (layer "B.SilkS") (tstamp 5d09dc97-eb2c-4224-8665-e7b589d64c69))
    (fp_line (start -1.33 0) (end -1.33 1.33)
      (stroke (width 0.12) (type solid)) (layer "B.SilkS") (tstamp 1f892b18-7aa6-4ad3-a3cb-dedcde52edf9))
    (fp_line (start -1.33 1.33) (end 0 1.33)
      (stroke (width 0.12) (type solid)) (layer "B.SilkS") (tstamp 0705b26c-479e-4666-bc67-5d36860e5596))
    (fp_line (start 1.33 -1.27) (end 1.33 -19.11)
      (stroke (width 0.12) (type solid)) (layer "B.SilkS") (tstamp ef1b1183-0d7b-4c3a-ba4a-b00055d46483))
    (fp_line (start -1.8 -19.55) (end 1.8 -19.55)
      (stroke (width 0.05) (type solid)) (layer "B.CrtYd") (tstamp d30ab275-ab16-468e-8aca-b99de97728c7))
    (fp_line (start -1.8 1.8) (end -1.8 -19.55)
      (stroke (width 0.05) (type solid)) (layer "B.CrtYd") (tstamp e9b3fbd2-55be-46ef-8a4b-a3c926d5a462))
    (fp_line (start 1.8 -19.55) (end 1.8 1.8)
      (stroke (width 0.05) (type solid)) (layer "B.CrtYd") (tstamp aab81a75-e918-4d8a-bcf3-cebbc4cf1cff))
    (fp_line (start 1.8 1.8) (end -1.8 1.8)
      (stroke (width 0.05) (type solid)) (layer "B.CrtYd") (tstamp f5bab834-d279-48b2-9bb0-011c9e26c9ce))
    (fp_line (start -1.27 -19.05) (end -1.27 0.635)
      (stroke (width 0.1) (type solid)) (layer "B.Fab") (tstamp 37a85633-8509-4a04-9115-d62e4f95a726))
    (fp_line (start -1.27 0.635) (end -0.635 1.27)
      (stroke (width 0.1) (type solid)) (layer "B.Fab") (tstamp cf269020-ea54-47f5-b20b-655bede0aad4))
    (fp_line (start -0.635 1.27) (end 1.27 1.27)
      (stroke (width 0.1) (type solid)) (layer "B.Fab") (tstamp 49a2c487-5f17-4f77-bbd9-ab02d320c0de))
    (fp_line (start 1.27 -19.05) (end -1.27 -19.05)
      (stroke (width 0.1) (type solid)) (layer "B.Fab") (tstamp 5e7df214-b216-4023-b1a6-21d69d8f8ca2))
    (fp_line (start 1.27 1.27) (end 1.27 -19.05)
      (stroke (width 0.1) (type solid)) (layer "B.Fab") (tstamp 431ac22d-344e-4980-9c50-9c92e5a1cf14))
    (pad "1" thru_hole rect (at 0 0 180) (size 1.7 1.7) (drill 1) (layers "*.Cu" "*.Mask")
      (net 15 "/PWM") (tstamp a5a71e3e-bfd4-4dc0-b25d-ac14788d7aa3))
    (pad "2" thru_hole oval (at 0 -2.54 180) (size 1.7 1.7) (drill 1) (layers "*.Cu" "*.Mask")
      (net 14 "/INT") (tstamp 49453133-3964-4fc8-9e73-83ead3e40084))
    (pad "3" thru_hole oval (at 0 -5.08 180) (size 1.7 1.7) (drill 1) (layers "*.Cu" "*.Mask")
      (net 13 "/TX") (tstamp 32098033-efc8-4de7-bb82-4302d1af81ea))
    (pad "4" thru_hole oval (at 0 -7.62 180) (size 1.7 1.7) (drill 1) (layers "*.Cu" "*.Mask")
      (net 12 "/RX") (tstamp d24a59dc-8b08-4540-b5d2-5d328d3740a1))
    (pad "5" thru_hole oval (at 0 -10.16 180) (size 1.7 1.7) (drill 1) (layers "*.Cu" "*.Mask")
      (net 11 "/SCL") (tstamp 0d5c40d9-2e71-4e52-920a-fb0bca126646))
    (pad "6" thru_hole oval (at 0 -12.7 180) (size 1.7 1.7) (drill 1) (layers "*.Cu" "*.Mask")
      (net 10 "/SDA") (tstamp 5536a629-a33c-46ec-a2b2-780a513836e9))
    (pad "7" thru_hole oval (at 0 -15.24 180) (size 1.7 1.7) (drill 1) (layers "*.Cu" "*.Mask")
      (net 9 "+5V") (tstamp 94e57d8f-6594-4e12-9580-0dda9cd70ed5))
    (pad "8" thru_hole oval (at 0 -17.78 180) (size 1.7 1.7) (drill 1) (layers "*.Cu" "*.Mask")
      (net 1 "GND") (tstamp 0f163881-6a98-4faa-9706-46cc480835f8))
    (model "${KISYS3DMOD}/Connector_PinHeader_2.54mm.3dshapes/PinHeader_1x08_P2.54mm_Vertical.wrl"
      (offset (xyz 0 0 0))
      (scale (xyz 1 1 1))
      (rotate (xyz 0 0 0))
    )
  )

  (gr_line (start 136.135 106.3) (end 139.945 106.3)
    (stroke (width 0.12) (type solid)) (layer "F.SilkS") (tstamp 00000000-0000-0000-0000-000060f82324))
  (gr_line (start 136.135 103.76) (end 139.945 103.76)
    (stroke (width 0.12) (type solid)) (layer "F.SilkS") (tstamp 00000000-0000-0000-0000-000060f82325))
  (gr_line (start 136.135 108.84) (end 139.945 108.84)
    (stroke (width 0.12) (type solid)) (layer "F.SilkS") (tstamp 00000000-0000-0000-0000-000060f82326))
  (gr_line (start 136.135 116.46) (end 139.945 116.46)
    (stroke (width 0.12) (type solid)) (layer "F.SilkS") (tstamp 00000000-0000-0000-0000-000060f8232a))
  (gr_line (start 136.135 113.92) (end 139.945 113.92)
    (stroke (width 0.12) (type solid)) (layer "F.SilkS") (tstamp 00000000-0000-0000-0000-000060f8232b))
  (gr_line (start 136.135 111.38) (end 139.945 111.38)
    (stroke (width 0.12) (type solid)) (layer "F.SilkS") (tstamp 00000000-0000-0000-0000-000060f8232c))
  (gr_line (start 156.455 116.46) (end 160.265 116.46)
    (stroke (width 0.12) (type solid)) (layer "F.SilkS") (tstamp 00000000-0000-0000-0000-000060f82330))
  (gr_line (start 156.455 108.84) (end 160.265 108.84)
    (stroke (width 0.12) (type solid)) (layer "F.SilkS") (tstamp 00000000-0000-0000-0000-000060f82331))
  (gr_line (start 156.455 98.68) (end 160.265 98.68)
    (stroke (width 0.12) (type solid)) (layer "F.SilkS") (tstamp 00000000-0000-0000-0000-000060f82332))
  (gr_line (start 156.455 106.3) (end 160.265 106.3)
    (stroke (width 0.12) (type solid)) (layer "F.SilkS") (tstamp 00000000-0000-0000-0000-000060f82333))
  (gr_line (start 156.455 96.14) (end 160.265 96.14)
    (stroke (width 0.12) (type solid)) (layer "F.SilkS") (tstamp 00000000-0000-0000-0000-000060f82334))
  (gr_line (start 156.455 113.92) (end 160.265 113.92)
    (stroke (width 0.12) (type solid)) (layer "F.SilkS") (tstamp 00000000-0000-0000-0000-000060f82335))
  (gr_line (start 156.455 103.76) (end 160.265 103.76)
    (stroke (width 0.12) (type solid)) (layer "F.SilkS") (tstamp 00000000-0000-0000-0000-000060f82336))
  (gr_line (start 156.455 101.22) (end 160.265 101.22)
    (stroke (width 0.12) (type solid)) (layer "F.SilkS") (tstamp 00000000-0000-0000-0000-000060f82337))
  (gr_line (start 156.455 111.38) (end 160.265 111.38)
    (stroke (width 0.12) (type solid)) (layer "F.SilkS") (tstamp 00000000-0000-0000-0000-000060f82338))
  (gr_line (start 136.135 101.22) (end 139.945 101.22)
    (stroke (width 0.12) (type solid)) (layer "F.SilkS") (tstamp 47cc6cd3-0075-4a5d-9803-2bd1bd2809b7))
  (gr_line (start 136.135 96.14) (end 139.945 96.14)
    (stroke (width 0.12) (type solid)) (layer "F.SilkS") (tstamp c938a750-eec3-4c1b-a1ce-ede3c4cce1fb))
  (gr_line (start 136.135 98.68) (end 139.945 98.68)
    (stroke (width 0.12) (type solid)) (layer "F.SilkS") (tstamp d70ffb22-7f0a-4180-9123-c9a1550f8bb2))
  (gr_line (start 136.135 76.074) (end 160.265 76.074)
    (stroke (width 0.15) (type solid)) (layer "Dwgs.User") (tstamp 03589707-d655-4d63-a416-aaa3c861621c))
  (gr_line (start 136.135 90.425) (end 160.265 90.425)
    (stroke (width 0.15) (type solid)) (layer "Dwgs.User") (tstamp ae0b873d-5dd8-499f-9deb-897e8c3471b1))
  (gr_line (start 160.9 61.85) (end 160.9 76.074)
    (stroke (width 0.05) (type solid)) (layer "Edge.Cuts") (tstamp 00000000-0000-0000-0000-000060f82da2))
  (gr_line (start 160.9 116.46) (end 158.36 119)
    (stroke (width 0.05) (type solid)) (layer "Edge.Cuts") (tstamp 0542f86f-6b8c-406a-943f-c9b1a988104d))
  (gr_line (start 160.9 116.46) (end 160.9 90.425)
    (stroke (width 0.05) (type solid)) (layer "Edge.Cuts") (tstamp 4ff203a1-9794-4705-8c33-9313d4a05b71))
  (gr_line (start 135.5 61.85) (end 160.9 61.85)
    (stroke (width 0.05) (type solid)) (layer "Edge.Cuts") (tstamp 5c9d6531-0c37-425d-8ffa-b52f442e09af))
  (gr_line (start 135.5 76.074) (end 135.5 61.85)
    (stroke (width 0.05) (type solid)) (layer "Edge.Cuts") (tstamp 64bcb6ea-88fe-4e81-9528-aeddf428fced))
  (gr_line (start 135.5 119) (end 135.5 90.425)
    (stroke (width 0.05) (type solid)) (layer "Edge.Cuts") (tstamp 7328201a-f374-4e36-b2a0-6b369af8e96f))
  (gr_line (start 158.36 119) (end 135.5 119)
    (stroke (width 0.05) (type solid)) (layer "Edge.Cuts") (tstamp c6c1ab5c-9587-4c59-8f48-631b84c3fa09))
  (gr_line (start 160.9 90.425) (end 160.9 76.074)
    (stroke (width 0.05) (type solid)) (layer "Edge.Cuts") (tstamp d3574708-1dc2-4ce1-b823-c99f95c36c4e))
  (gr_line (start 135.5 90.425) (end 135.5 76.074)
    (stroke (width 0.05) (type solid)) (layer "Edge.Cuts") (tstamp e14d7673-b004-47bc-ad4c-dfca74a3c302))
  (gr_text "SDO" (at 139.31 107.57 90) (layer "F.SilkS") (tstamp 03449174-7811-48b3-9bbe-e9f33aa6bbd0)
    (effects (font (size 0.75 0.75) (thickness 0.15)))
  )
  (gr_text "3V3" (at 139.31 112.65 90) (layer "F.SilkS") (tstamp 0b654cd6-9330-4fea-86e2-6fec0079fc29)
    (effects (font (size 0.75 0.75) (thickness 0.15)))
  )
  (gr_text "SCL" (at 157.09 107.57 90) (layer "F.SilkS") (tstamp 0c328bc5-c46d-4f57-8ce3-4d67d22c30b1)
    (effects (font (size 0.75 0.75) (thickness 0.15)))
  )
  (gr_text "AN" (at 139.31 97.41 90) (layer "F.SilkS") (tstamp 1bcc6118-e1cf-4208-aba4-0abf66d80a30)
    (effects (font (size 0.75 0.75) (thickness 0.15)))
  )
  (gr_text "SDI" (at 139.31 110.11 90) (layer "F.SilkS") (tstamp 59db6fe5-d7a6-4dc6-bdd7-e4546c27fe24)
    (effects (font (size 0.75 0.75) (thickness 0.15)))
  )
  (gr_text "RST" (at 139.31 99.95 90) (layer "F.SilkS") (tstamp 68f87fad-136d-435b-93cb-2d2f5f0ef61d)
    (effects (font (size 0.75 0.75) (thickness 0.15)))
  )
  (gr_text "PWM" (at 157.09 97.41 90) (layer "F.SilkS") (tstamp 6b3b1005-8f6d-4207-b71a-47f4475deafe)
    (effects (font (size 0.75 0.75) (thickness 0.15)))
  )
  (gr_text "TX" (at 157.09 102.49 90) (layer "F.SilkS") (tstamp 712c117e-19a7-48b9-a28c-1877aee46a85)
    (effects (font (size 0.75 0.75) (thickness 0.15)))
  )
  (gr_text "Board Name" (at 148.2 117.73) (layer "F.SilkS") (tstamp 765f9c58-3159-44a8-9018-bd29ad8b2578)
    (effects (font (size 1 1) (thickness 0.15)))
  )
  (gr_text "SCK" (at 139.31 105.03 90) (layer "F.SilkS") (tstamp 8756afa7-d940-443d-ac5e-64fa549cc9ff)
    (effects (font (size 0.75 0.75) (thickness 0.15)))
  )
  (gr_text "~{CS}" (at 139.31 102.49 90) (layer "F.SilkS") (tstamp 9aadca0f-b3a5-4541-bfc7-eeafa503b082)
    (effects (font (size 0.75 0.75) (thickness 0.15)))
  )
  (gr_text "GND" (at 157.09 115.19 90) (layer "F.SilkS") (tstamp b77faa3a-1015-44bf-b97a-181d2aabdae3)
    (effects (font (size 0.75 0.75) (thickness 0.15)))
  )
  (gr_text "INT" (at 157.09 99.95 90) (layer "F.SilkS") (tstamp c0bd9826-b417-43a6-a995-974747416ce2)
    (effects (font (size 0.75 0.75) (thickness 0.15)))
  )
  (gr_text "GND" (at 139.31 115.19 90) (layer "F.SilkS") (tstamp c16a4177-e68c-4c62-84ed-46f13e00fe2a)
    (effects (font (size 0.75 0.75) (thickness 0.15)))
  )
  (gr_text "SDA" (at 157.09 110.11 90) (layer "F.SilkS") (tstamp d8a9a075-7444-4908-be73-f15234c76c3e)
    (effects (font (size 0.75 0.75) (thickness 0.15)))
  )
  (gr_text "RX" (at 157.09 105.03 90) (layer "F.SilkS") (tstamp f086fa1c-68dc-41a1-8afd-303b87bf077f)
    (effects (font (size 0.75 0.75) (thickness 0.15)))
  )
  (gr_text "5V" (at 157.09 112.65 90) (layer "F.SilkS") (tstamp f45c1360-0dff-46f8-83c5-d28f653d0731)
    (effects (font (size 0.75 0.75) (thickness 0.15)))
  )
  (gr_text "M" (at 148.2 75.185) (layer "Dwgs.User") (tstamp 5cc4dbc0-d14b-4956-8ac0-8e5aba085f9e)
    (effects (font (size 1 1) (thickness 0.15)))
  )
  (gr_text "S" (at 148.2 89.155) (layer "Dwgs.User") (tstamp d7927853-af4e-4e59-9957-14acc2eab9ac)
    (effects (font (size 1 1) (thickness 0.15)))
  )
  (gr_text "L" (at 148.2 60.58) (layer "Dwgs.User") (tstamp e909ef7f-ed33-4e1b-9544-4c327ed07d54)
    (effects (font (size 1 1) (thickness 0.15)))
  )
  (dimension (type aligned) (layer "Dwgs.User") (tstamp 20cb6250-57e6-4fe7-a895-583adccaafbf)
    (pts (xy 161.535 119) (xy 161.535 116.46))
    (height 5.08)
    (gr_text "100.0000 mils" (at 165.465 117.73 90) (layer "Dwgs.User") (tstamp 20cb6250-57e6-4fe7-a895-583adccaafbf)
      (effects (font (size 1 1) (thickness 0.15)))
    )
    (format (prefix "") (suffix "") (units 1) (units_format 1) (precision 4))
    (style (thickness 0.15) (arrow_length 1.27) (text_position_mode 0) (extension_height 0.58642) (extension_offset 0) keep_text_aligned)
  )
  (dimension (type aligned) (layer "Dwgs.User") (tstamp 636394c5-ff35-4b92-b38c-39095e4e3a21)
    (pts (xy 134.23 90.425) (xy 134.23 119))
    (height 2.54)
    (gr_text "1125.0000 mils" (at 130.54 104.7125 90) (layer "Dwgs.User") (tstamp 636394c5-ff35-4b92-b38c-39095e4e3a21)
      (effects (font (size 1 1) (thickness 0.15)))
    )
    (format (prefix "") (suffix "") (units 1) (units_format 1) (precision 4))
    (style (thickness 0.15) (arrow_length 1.27) (text_position_mode 0) (extension_height 0.58642) (extension_offset 0) keep_text_aligned)
  )
  (dimension (type aligned) (layer "Dwgs.User") (tstamp 66bd0a83-0148-4fe3-a387-14f5fe806a80)
    (pts (xy 134.23 76.074) (xy 134.23 119))
    (height 5.715)
    (gr_text "1690.0000 mils" (at 127.365 97.537 90) (layer "Dwgs.User") (tstamp 66bd0a83-0148-4fe3-a387-14f5fe806a80)
      (effects (font (size 1 1) (thickness 0.15)))
    )
    (format (prefix "") (suffix "") (units 1) (units_format 1) (precision 4))
    (style (thickness 0.15) (arrow_length 1.27) (text_position_mode 0) (extension_height 0.58642) (extension_offset 0) keep_text_aligned)
  )
  (dimension (type aligned) (layer "Dwgs.User") (tstamp 6ef4fd48-8217-47e9-8dd7-9b923dd809db)
    (pts (xy 159.63 95.505) (xy 136.77 95.505))
    (height 1.27)
    (gr_text "900.0000 mils" (at 148.2 93.085) (layer "Dwgs.User") (tstamp 6ef4fd48-8217-47e9-8dd7-9b923dd809db)
      (effects (font (size 1 1) (thickness 0.15)))
    )
    (format (prefix "") (suffix "") (units 1) (units_format 1) (precision 4))
    (style (thickness 0.15) (arrow_length 1.27) (text_position_mode 0) (extension_height 0.58642) (extension_offset 0) keep_text_aligned)
  )
  (dimension (type aligned) (layer "Dwgs.User") (tstamp 84dda73e-5c1b-4aef-a53a-469c62904838)
    (pts (xy 160.9 119.635) (xy 158.36 119.635))
    (height -5.715)
    (gr_text "100.0000 mils" (at 159.63 124.2) (layer "Dwgs.User") (tstamp 84dda73e-5c1b-4aef-a53a-469c62904838)
      (effects (font (size 1 1) (thickness 0.15)))
    )
    (format (prefix "") (suffix "") (units 1) (units_format 1) (precision 4))
    (style (thickness 0.15) (arrow_length 1.27) (text_position_mode 0) (extension_height 0.58642) (extension_offset 0) keep_text_aligned)
  )
  (dimension (type aligned) (layer "Dwgs.User") (tstamp c9d0f754-df8d-4070-a4ef-c1fed505bc19)
    (pts (xy 134.23 61.85) (xy 134.23 119))
    (height 8.89)
    (gr_text "57.1500 mm" (at 124.19 90.425 90) (layer "Dwgs.User") (tstamp c9d0f754-df8d-4070-a4ef-c1fed505bc19)
      (effects (font (size 1 1) (thickness 0.15)))
    )
    (format (prefix "") (suffix "") (units 2) (units_format 1) (precision 4))
    (style (thickness 0.15) (arrow_length 1.27) (text_position_mode 0) (extension_height 0.58642) (extension_offset 0) keep_text_aligned)
  )
  (dimension (type aligned) (layer "Dwgs.User") (tstamp f266ae82-627a-46bb-9496-a95519019f2c)
    (pts (xy 160.9 61.215) (xy 135.5 61.215))
    (height 3.81)
    (gr_text "1000.0000 mils" (at 148.2 56.255) (layer "Dwgs.User") (tstamp f266ae82-627a-46bb-9496-a95519019f2c)
      (effects (font (size 1 1) (thickness 0.15)))
    )
    (format (prefix "") (suffix "") (units 1) (units_format 1) (precision 4))
    (style (thickness 0.15) (arrow_length 1.27) (text_position_mode 0) (extension_height 0.58642) (extension_offset 0) keep_text_aligned)
  )

)
